[gd_scene load_steps=4 format=2]

[ext_resource path="res://Player.tscn" type="PackedScene" id=1]
[ext_resource path="res://JungleDirtTileSet.tres" type="TileSet" id=2]
[ext_resource path="res://WorldComplete.tscn" type="PackedScene" id=3]

[node name="World" type="Node" index="0"]

[node name="Player" parent="." index="0" instance=ExtResource( 1 )]

position = Vector2( 64, 224 )

[node name="TileMap" type="TileMap" parent="." index="1"]

mode = 0
tile_set = ExtResource( 2 )
cell_size = Vector2( 32, 32 )
cell_quadrant_size = 16
cell_custom_transform = Transform2D( 1, 0, 0, 1, 0, 0 )
cell_half_offset = 2
cell_tile_origin = 0
cell_y_sort = false
cell_clip_uv = false
collision_use_kinematic = false
collision_friction = 1.0
collision_bounce = 0.0
collision_layer = 1
collision_mask = 1
occluder_light_mask = 1
format = 1
tile_data = PoolIntArray( 65538, 0, 0, 65539, 1, 0, 65540, 1, 0, 65541, 1, 0, 65542, 1, 0, 65543, 2, 0, 131075, 4, 0, 131076, 4, 0, 131077, 4, 0, 131078, 4, 0, 131079, 5, 0, 196612, 4, 0, 196613, 4, 0, 196615, 8, 0, 262148, 4, 0, 262149, 4, 0, 327691, 0, 0, 327692, 1, 0, 327693, 1, 0, 327694, 1, 0, 327695, 2, 0, 393227, 6, 0, 393228, 7, 0, 393229, 7, 0, 393230, 7, 0, 393231, 8, 0, 524289, 0, 0, 524290, 1, 0, 524291, 1, 0, 524292, 1, 0, 524293, 1, 0, 524294, 1, 0, 524295, 1, 0, 524296, 1, 0, 524297, 1, 0, 524298, 1, 0, 524299, 1, 0, 524300, 2, 0, 589825, 3, 0, 589826, 4, 0, 589827, 4, 0, 589828, 4, 0, 589829, 4, 0, 589830, 4, 0, 589831, 4, 0, 589832, 4, 0, 589833, 4, 0, 589834, 4, 0, 589835, 4, 0, 589836, 5, 0, 655361, 6, 0, 655362, 7, 0, 655363, 7, 0, 655364, 7, 0, 655365, 7, 0, 655366, 7, 0, 655367, 7, 0, 655368, 7, 0, 655369, 7, 0, 655370, 7, 0, 655371, 7, 0, 655372, 8, 0 )
_sections_unfolded = [ "Cell" ]
__meta__ = {
"_edit_lock_": true
}

[node name="WorldComplete" parent="." index="2" instance=ExtResource( 3 )]

position = Vector2( 448, 128 )
next_world = "res://World2.tscn"


